{"data":{"list":[{"issueNumber":"20241122100011332","number":"1","colour":"green","premium":"60581"},{"issueNumber":"20241122100011331","number":"0","colour":"red,violet","premium":"48850"},{"issueNumber":"20241122100011330","number":"8","colour":"red","premium":"13428"},{"issueNumber":"20241122100011329","number":"1","colour":"green","premium":"78641"},{"issueNumber":"20241122100011328","number":"0","colour":"red,violet","premium":"77930"},{"issueNumber":"20241122100011327","number":"9","colour":"green","premium":"10649"},{"issueNumber":"20241122100011326","number":"9","colour":"green","premium":"41309"},{"issueNumber":"20241122100011325","number":"2","colour":"red","premium":"49942"},{"issueNumber":"20241122100011324","number":"8","colour":"red","premium":"36118"},{"issueNumber":"20241122100011323","number":"6","colour":"red","premium":"42046"}],"pageNo":1,"totalPage":1607,"totalCount":16062},"code":0,"msg":"Succeed","msgCode":0,"serviceNowTime":"2024-11-23 03:42:35"}